// Jest Snapshot v1, https://goo.gl/fbAQLP

exports[`<Preview/> matches error snapshot 1`] = `
<div>
  <div
    className="videoCnt"
  >
    <div
      className="cannotPlay"
    >
      <i
        className="material-icons"
      >
        error
      </i>
    </div>
  </div>
  <div
    className="previewBar disabled"
  >
    <div>
      <i
        className="material-icons"
        onClick={[Function]}
      >
        skip_previous
      </i>
      <i
        className="material-icons"
        onClick={[Function]}
      >
        play_arrow
      </i>
      <i
        className="material-icons"
        onClick={[Function]}
      >
        skip_next
      </i>
    </div>
    <i
      className="material-icons shuffle"
      onClick={[Function]}
    >
      shuffle
    </i>
  </div>
</div>
`;

exports[`<Preview/> matches playing snapshot 1`] = `
<div>
  <div
    className="videoCnt"
  >
    <video
      className="videoEl"
      onEnded={[Function]}
      onError={[Function]}
      onPause={[Function]}
      onPlay={[Function]}
      onPlaying={[Function]}
      onProgress={[Function]}
      src=""
    />
  </div>
  <div
    className="previewBar"
  >
    <div>
      <i
        className="material-icons"
        onClick={[Function]}
      >
        skip_previous
      </i>
      <i
        className="material-icons"
        onClick={[Function]}
      >
        pause
      </i>
      <i
        className="material-icons"
        onClick={[Function]}
      >
        skip_next
      </i>
    </div>
    <i
      className="material-icons shuffle"
      onClick={[Function]}
    >
      shuffle
    </i>
  </div>
</div>
`;

exports[`<Preview/> matches snapshot 1`] = `
<div>
  <div
    className="videoCnt"
  >
    <video
      className="videoEl"
      onEnded={[Function]}
      onError={[Function]}
      onPause={[Function]}
      onPlay={[Function]}
      onPlaying={[Function]}
      onProgress={[Function]}
      src=""
    />
  </div>
  <div
    className="previewBar"
  >
    <div>
      <i
        className="material-icons"
        onClick={[Function]}
      >
        skip_previous
      </i>
      <i
        className="material-icons"
        onClick={[Function]}
      >
        play_arrow
      </i>
      <i
        className="material-icons"
        onClick={[Function]}
      >
        skip_next
      </i>
    </div>
    <i
      className="material-icons shuffle"
      onClick={[Function]}
    >
      shuffle
    </i>
  </div>
</div>
`;
